%TF.GenerationSoftware,KiCad,Pcbnew,8.0.6*%
%TF.CreationDate,2024-10-17T23:32:30-05:00*%
%TF.ProjectId,n64_gamecat_rp2350b,6e36345f-6761-46d6-9563-61745f727032,rev?*%
%TF.SameCoordinates,Original*%
%TF.FileFunction,Legend,Top*%
%TF.FilePolarity,Positive*%
%FSLAX46Y46*%
G04 Gerber Fmt 4.6, Leading zero omitted, Abs format (unit mm)*
G04 Created by KiCad (PCBNEW 8.0.6) date 2024-10-17 23:32:30*
%MOMM*%
%LPD*%
G01*
G04 APERTURE LIST*
%ADD10C,0.100000*%
%ADD11C,0.150000*%
%ADD12C,0.120000*%
G04 APERTURE END LIST*
D10*
X101803884Y-56652531D02*
X101803884Y-55652531D01*
X101803884Y-55652531D02*
X102375312Y-56652531D01*
X102375312Y-56652531D02*
X102375312Y-55652531D01*
X103280074Y-55652531D02*
X103089598Y-55652531D01*
X103089598Y-55652531D02*
X102994360Y-55700150D01*
X102994360Y-55700150D02*
X102946741Y-55747769D01*
X102946741Y-55747769D02*
X102851503Y-55890626D01*
X102851503Y-55890626D02*
X102803884Y-56081102D01*
X102803884Y-56081102D02*
X102803884Y-56462054D01*
X102803884Y-56462054D02*
X102851503Y-56557292D01*
X102851503Y-56557292D02*
X102899122Y-56604912D01*
X102899122Y-56604912D02*
X102994360Y-56652531D01*
X102994360Y-56652531D02*
X103184836Y-56652531D01*
X103184836Y-56652531D02*
X103280074Y-56604912D01*
X103280074Y-56604912D02*
X103327693Y-56557292D01*
X103327693Y-56557292D02*
X103375312Y-56462054D01*
X103375312Y-56462054D02*
X103375312Y-56223959D01*
X103375312Y-56223959D02*
X103327693Y-56128721D01*
X103327693Y-56128721D02*
X103280074Y-56081102D01*
X103280074Y-56081102D02*
X103184836Y-56033483D01*
X103184836Y-56033483D02*
X102994360Y-56033483D01*
X102994360Y-56033483D02*
X102899122Y-56081102D01*
X102899122Y-56081102D02*
X102851503Y-56128721D01*
X102851503Y-56128721D02*
X102803884Y-56223959D01*
X104232455Y-55985864D02*
X104232455Y-56652531D01*
X103994360Y-55604912D02*
X103756265Y-56319197D01*
X103756265Y-56319197D02*
X104375312Y-56319197D01*
X106041979Y-55700150D02*
X105946741Y-55652531D01*
X105946741Y-55652531D02*
X105803884Y-55652531D01*
X105803884Y-55652531D02*
X105661027Y-55700150D01*
X105661027Y-55700150D02*
X105565789Y-55795388D01*
X105565789Y-55795388D02*
X105518170Y-55890626D01*
X105518170Y-55890626D02*
X105470551Y-56081102D01*
X105470551Y-56081102D02*
X105470551Y-56223959D01*
X105470551Y-56223959D02*
X105518170Y-56414435D01*
X105518170Y-56414435D02*
X105565789Y-56509673D01*
X105565789Y-56509673D02*
X105661027Y-56604912D01*
X105661027Y-56604912D02*
X105803884Y-56652531D01*
X105803884Y-56652531D02*
X105899122Y-56652531D01*
X105899122Y-56652531D02*
X106041979Y-56604912D01*
X106041979Y-56604912D02*
X106089598Y-56557292D01*
X106089598Y-56557292D02*
X106089598Y-56223959D01*
X106089598Y-56223959D02*
X105899122Y-56223959D01*
X106946741Y-56652531D02*
X106946741Y-56128721D01*
X106946741Y-56128721D02*
X106899122Y-56033483D01*
X106899122Y-56033483D02*
X106803884Y-55985864D01*
X106803884Y-55985864D02*
X106613408Y-55985864D01*
X106613408Y-55985864D02*
X106518170Y-56033483D01*
X106946741Y-56604912D02*
X106851503Y-56652531D01*
X106851503Y-56652531D02*
X106613408Y-56652531D01*
X106613408Y-56652531D02*
X106518170Y-56604912D01*
X106518170Y-56604912D02*
X106470551Y-56509673D01*
X106470551Y-56509673D02*
X106470551Y-56414435D01*
X106470551Y-56414435D02*
X106518170Y-56319197D01*
X106518170Y-56319197D02*
X106613408Y-56271578D01*
X106613408Y-56271578D02*
X106851503Y-56271578D01*
X106851503Y-56271578D02*
X106946741Y-56223959D01*
X107422932Y-56652531D02*
X107422932Y-55985864D01*
X107422932Y-56081102D02*
X107470551Y-56033483D01*
X107470551Y-56033483D02*
X107565789Y-55985864D01*
X107565789Y-55985864D02*
X107708646Y-55985864D01*
X107708646Y-55985864D02*
X107803884Y-56033483D01*
X107803884Y-56033483D02*
X107851503Y-56128721D01*
X107851503Y-56128721D02*
X107851503Y-56652531D01*
X107851503Y-56128721D02*
X107899122Y-56033483D01*
X107899122Y-56033483D02*
X107994360Y-55985864D01*
X107994360Y-55985864D02*
X108137217Y-55985864D01*
X108137217Y-55985864D02*
X108232456Y-56033483D01*
X108232456Y-56033483D02*
X108280075Y-56128721D01*
X108280075Y-56128721D02*
X108280075Y-56652531D01*
X109137217Y-56604912D02*
X109041979Y-56652531D01*
X109041979Y-56652531D02*
X108851503Y-56652531D01*
X108851503Y-56652531D02*
X108756265Y-56604912D01*
X108756265Y-56604912D02*
X108708646Y-56509673D01*
X108708646Y-56509673D02*
X108708646Y-56128721D01*
X108708646Y-56128721D02*
X108756265Y-56033483D01*
X108756265Y-56033483D02*
X108851503Y-55985864D01*
X108851503Y-55985864D02*
X109041979Y-55985864D01*
X109041979Y-55985864D02*
X109137217Y-56033483D01*
X109137217Y-56033483D02*
X109184836Y-56128721D01*
X109184836Y-56128721D02*
X109184836Y-56223959D01*
X109184836Y-56223959D02*
X108708646Y-56319197D01*
X110184836Y-56557292D02*
X110137217Y-56604912D01*
X110137217Y-56604912D02*
X109994360Y-56652531D01*
X109994360Y-56652531D02*
X109899122Y-56652531D01*
X109899122Y-56652531D02*
X109756265Y-56604912D01*
X109756265Y-56604912D02*
X109661027Y-56509673D01*
X109661027Y-56509673D02*
X109613408Y-56414435D01*
X109613408Y-56414435D02*
X109565789Y-56223959D01*
X109565789Y-56223959D02*
X109565789Y-56081102D01*
X109565789Y-56081102D02*
X109613408Y-55890626D01*
X109613408Y-55890626D02*
X109661027Y-55795388D01*
X109661027Y-55795388D02*
X109756265Y-55700150D01*
X109756265Y-55700150D02*
X109899122Y-55652531D01*
X109899122Y-55652531D02*
X109994360Y-55652531D01*
X109994360Y-55652531D02*
X110137217Y-55700150D01*
X110137217Y-55700150D02*
X110184836Y-55747769D01*
X111041979Y-56652531D02*
X111041979Y-56128721D01*
X111041979Y-56128721D02*
X110994360Y-56033483D01*
X110994360Y-56033483D02*
X110899122Y-55985864D01*
X110899122Y-55985864D02*
X110708646Y-55985864D01*
X110708646Y-55985864D02*
X110613408Y-56033483D01*
X111041979Y-56604912D02*
X110946741Y-56652531D01*
X110946741Y-56652531D02*
X110708646Y-56652531D01*
X110708646Y-56652531D02*
X110613408Y-56604912D01*
X110613408Y-56604912D02*
X110565789Y-56509673D01*
X110565789Y-56509673D02*
X110565789Y-56414435D01*
X110565789Y-56414435D02*
X110613408Y-56319197D01*
X110613408Y-56319197D02*
X110708646Y-56271578D01*
X110708646Y-56271578D02*
X110946741Y-56271578D01*
X110946741Y-56271578D02*
X111041979Y-56223959D01*
X111375313Y-55985864D02*
X111756265Y-55985864D01*
X111518170Y-55652531D02*
X111518170Y-56509673D01*
X111518170Y-56509673D02*
X111565789Y-56604912D01*
X111565789Y-56604912D02*
X111661027Y-56652531D01*
X111661027Y-56652531D02*
X111756265Y-56652531D01*
X112756266Y-55985864D02*
X112994361Y-56652531D01*
X112994361Y-56652531D02*
X113232456Y-55985864D01*
X113803885Y-55652531D02*
X113899123Y-55652531D01*
X113899123Y-55652531D02*
X113994361Y-55700150D01*
X113994361Y-55700150D02*
X114041980Y-55747769D01*
X114041980Y-55747769D02*
X114089599Y-55843007D01*
X114089599Y-55843007D02*
X114137218Y-56033483D01*
X114137218Y-56033483D02*
X114137218Y-56271578D01*
X114137218Y-56271578D02*
X114089599Y-56462054D01*
X114089599Y-56462054D02*
X114041980Y-56557292D01*
X114041980Y-56557292D02*
X113994361Y-56604912D01*
X113994361Y-56604912D02*
X113899123Y-56652531D01*
X113899123Y-56652531D02*
X113803885Y-56652531D01*
X113803885Y-56652531D02*
X113708647Y-56604912D01*
X113708647Y-56604912D02*
X113661028Y-56557292D01*
X113661028Y-56557292D02*
X113613409Y-56462054D01*
X113613409Y-56462054D02*
X113565790Y-56271578D01*
X113565790Y-56271578D02*
X113565790Y-56033483D01*
X113565790Y-56033483D02*
X113613409Y-55843007D01*
X113613409Y-55843007D02*
X113661028Y-55747769D01*
X113661028Y-55747769D02*
X113708647Y-55700150D01*
X113708647Y-55700150D02*
X113803885Y-55652531D01*
X114565790Y-56557292D02*
X114613409Y-56604912D01*
X114613409Y-56604912D02*
X114565790Y-56652531D01*
X114565790Y-56652531D02*
X114518171Y-56604912D01*
X114518171Y-56604912D02*
X114565790Y-56557292D01*
X114565790Y-56557292D02*
X114565790Y-56652531D01*
X115518170Y-55652531D02*
X115041980Y-55652531D01*
X115041980Y-55652531D02*
X114994361Y-56128721D01*
X114994361Y-56128721D02*
X115041980Y-56081102D01*
X115041980Y-56081102D02*
X115137218Y-56033483D01*
X115137218Y-56033483D02*
X115375313Y-56033483D01*
X115375313Y-56033483D02*
X115470551Y-56081102D01*
X115470551Y-56081102D02*
X115518170Y-56128721D01*
X115518170Y-56128721D02*
X115565789Y-56223959D01*
X115565789Y-56223959D02*
X115565789Y-56462054D01*
X115565789Y-56462054D02*
X115518170Y-56557292D01*
X115518170Y-56557292D02*
X115470551Y-56604912D01*
X115470551Y-56604912D02*
X115375313Y-56652531D01*
X115375313Y-56652531D02*
X115137218Y-56652531D01*
X115137218Y-56652531D02*
X115041980Y-56604912D01*
X115041980Y-56604912D02*
X114994361Y-56557292D01*
X101756265Y-57976760D02*
X102232455Y-57976760D01*
X101661027Y-58262475D02*
X101994360Y-57262475D01*
X101994360Y-57262475D02*
X102327693Y-58262475D01*
X102661027Y-57595808D02*
X102661027Y-58262475D01*
X102661027Y-57691046D02*
X102708646Y-57643427D01*
X102708646Y-57643427D02*
X102803884Y-57595808D01*
X102803884Y-57595808D02*
X102946741Y-57595808D01*
X102946741Y-57595808D02*
X103041979Y-57643427D01*
X103041979Y-57643427D02*
X103089598Y-57738665D01*
X103089598Y-57738665D02*
X103089598Y-58262475D01*
X103994360Y-58262475D02*
X103994360Y-57262475D01*
X103994360Y-58214856D02*
X103899122Y-58262475D01*
X103899122Y-58262475D02*
X103708646Y-58262475D01*
X103708646Y-58262475D02*
X103613408Y-58214856D01*
X103613408Y-58214856D02*
X103565789Y-58167236D01*
X103565789Y-58167236D02*
X103518170Y-58071998D01*
X103518170Y-58071998D02*
X103518170Y-57786284D01*
X103518170Y-57786284D02*
X103565789Y-57691046D01*
X103565789Y-57691046D02*
X103613408Y-57643427D01*
X103613408Y-57643427D02*
X103708646Y-57595808D01*
X103708646Y-57595808D02*
X103899122Y-57595808D01*
X103899122Y-57595808D02*
X103994360Y-57643427D01*
X104470551Y-58262475D02*
X104470551Y-57595808D01*
X104470551Y-57786284D02*
X104518170Y-57691046D01*
X104518170Y-57691046D02*
X104565789Y-57643427D01*
X104565789Y-57643427D02*
X104661027Y-57595808D01*
X104661027Y-57595808D02*
X104756265Y-57595808D01*
X105470551Y-58214856D02*
X105375313Y-58262475D01*
X105375313Y-58262475D02*
X105184837Y-58262475D01*
X105184837Y-58262475D02*
X105089599Y-58214856D01*
X105089599Y-58214856D02*
X105041980Y-58119617D01*
X105041980Y-58119617D02*
X105041980Y-57738665D01*
X105041980Y-57738665D02*
X105089599Y-57643427D01*
X105089599Y-57643427D02*
X105184837Y-57595808D01*
X105184837Y-57595808D02*
X105375313Y-57595808D01*
X105375313Y-57595808D02*
X105470551Y-57643427D01*
X105470551Y-57643427D02*
X105518170Y-57738665D01*
X105518170Y-57738665D02*
X105518170Y-57833903D01*
X105518170Y-57833903D02*
X105041980Y-57929141D01*
X105851504Y-57595808D02*
X106041980Y-58262475D01*
X106041980Y-58262475D02*
X106232456Y-57786284D01*
X106232456Y-57786284D02*
X106422932Y-58262475D01*
X106422932Y-58262475D02*
X106613408Y-57595808D01*
X107613409Y-57262475D02*
X108184837Y-57262475D01*
X107899123Y-58262475D02*
X107899123Y-57262475D01*
X108518171Y-58262475D02*
X108518171Y-57262475D01*
X108946742Y-58262475D02*
X108946742Y-57738665D01*
X108946742Y-57738665D02*
X108899123Y-57643427D01*
X108899123Y-57643427D02*
X108803885Y-57595808D01*
X108803885Y-57595808D02*
X108661028Y-57595808D01*
X108661028Y-57595808D02*
X108565790Y-57643427D01*
X108565790Y-57643427D02*
X108518171Y-57691046D01*
X109565790Y-58262475D02*
X109470552Y-58214856D01*
X109470552Y-58214856D02*
X109422933Y-58167236D01*
X109422933Y-58167236D02*
X109375314Y-58071998D01*
X109375314Y-58071998D02*
X109375314Y-57786284D01*
X109375314Y-57786284D02*
X109422933Y-57691046D01*
X109422933Y-57691046D02*
X109470552Y-57643427D01*
X109470552Y-57643427D02*
X109565790Y-57595808D01*
X109565790Y-57595808D02*
X109708647Y-57595808D01*
X109708647Y-57595808D02*
X109803885Y-57643427D01*
X109803885Y-57643427D02*
X109851504Y-57691046D01*
X109851504Y-57691046D02*
X109899123Y-57786284D01*
X109899123Y-57786284D02*
X109899123Y-58071998D01*
X109899123Y-58071998D02*
X109851504Y-58167236D01*
X109851504Y-58167236D02*
X109803885Y-58214856D01*
X109803885Y-58214856D02*
X109708647Y-58262475D01*
X109708647Y-58262475D02*
X109565790Y-58262475D01*
X110327695Y-58262475D02*
X110327695Y-57595808D01*
X110327695Y-57691046D02*
X110375314Y-57643427D01*
X110375314Y-57643427D02*
X110470552Y-57595808D01*
X110470552Y-57595808D02*
X110613409Y-57595808D01*
X110613409Y-57595808D02*
X110708647Y-57643427D01*
X110708647Y-57643427D02*
X110756266Y-57738665D01*
X110756266Y-57738665D02*
X110756266Y-58262475D01*
X110756266Y-57738665D02*
X110803885Y-57643427D01*
X110803885Y-57643427D02*
X110899123Y-57595808D01*
X110899123Y-57595808D02*
X111041980Y-57595808D01*
X111041980Y-57595808D02*
X111137219Y-57643427D01*
X111137219Y-57643427D02*
X111184838Y-57738665D01*
X111184838Y-57738665D02*
X111184838Y-58262475D01*
X112089599Y-58262475D02*
X112089599Y-57738665D01*
X112089599Y-57738665D02*
X112041980Y-57643427D01*
X112041980Y-57643427D02*
X111946742Y-57595808D01*
X111946742Y-57595808D02*
X111756266Y-57595808D01*
X111756266Y-57595808D02*
X111661028Y-57643427D01*
X112089599Y-58214856D02*
X111994361Y-58262475D01*
X111994361Y-58262475D02*
X111756266Y-58262475D01*
X111756266Y-58262475D02*
X111661028Y-58214856D01*
X111661028Y-58214856D02*
X111613409Y-58119617D01*
X111613409Y-58119617D02*
X111613409Y-58024379D01*
X111613409Y-58024379D02*
X111661028Y-57929141D01*
X111661028Y-57929141D02*
X111756266Y-57881522D01*
X111756266Y-57881522D02*
X111994361Y-57881522D01*
X111994361Y-57881522D02*
X112089599Y-57833903D01*
X112518171Y-58214856D02*
X112613409Y-58262475D01*
X112613409Y-58262475D02*
X112803885Y-58262475D01*
X112803885Y-58262475D02*
X112899123Y-58214856D01*
X112899123Y-58214856D02*
X112946742Y-58119617D01*
X112946742Y-58119617D02*
X112946742Y-58071998D01*
X112946742Y-58071998D02*
X112899123Y-57976760D01*
X112899123Y-57976760D02*
X112803885Y-57929141D01*
X112803885Y-57929141D02*
X112661028Y-57929141D01*
X112661028Y-57929141D02*
X112565790Y-57881522D01*
X112565790Y-57881522D02*
X112518171Y-57786284D01*
X112518171Y-57786284D02*
X112518171Y-57738665D01*
X112518171Y-57738665D02*
X112565790Y-57643427D01*
X112565790Y-57643427D02*
X112661028Y-57595808D01*
X112661028Y-57595808D02*
X112803885Y-57595808D01*
X112803885Y-57595808D02*
X112899123Y-57643427D01*
X114422933Y-58643427D02*
X114375314Y-58595808D01*
X114375314Y-58595808D02*
X114280076Y-58452951D01*
X114280076Y-58452951D02*
X114232457Y-58357713D01*
X114232457Y-58357713D02*
X114184838Y-58214856D01*
X114184838Y-58214856D02*
X114137219Y-57976760D01*
X114137219Y-57976760D02*
X114137219Y-57786284D01*
X114137219Y-57786284D02*
X114184838Y-57548189D01*
X114184838Y-57548189D02*
X114232457Y-57405332D01*
X114232457Y-57405332D02*
X114280076Y-57310094D01*
X114280076Y-57310094D02*
X114375314Y-57167236D01*
X114375314Y-57167236D02*
X114422933Y-57119617D01*
X115375314Y-58167236D02*
X115327695Y-58214856D01*
X115327695Y-58214856D02*
X115184838Y-58262475D01*
X115184838Y-58262475D02*
X115089600Y-58262475D01*
X115089600Y-58262475D02*
X114946743Y-58214856D01*
X114946743Y-58214856D02*
X114851505Y-58119617D01*
X114851505Y-58119617D02*
X114803886Y-58024379D01*
X114803886Y-58024379D02*
X114756267Y-57833903D01*
X114756267Y-57833903D02*
X114756267Y-57691046D01*
X114756267Y-57691046D02*
X114803886Y-57500570D01*
X114803886Y-57500570D02*
X114851505Y-57405332D01*
X114851505Y-57405332D02*
X114946743Y-57310094D01*
X114946743Y-57310094D02*
X115089600Y-57262475D01*
X115089600Y-57262475D02*
X115184838Y-57262475D01*
X115184838Y-57262475D02*
X115327695Y-57310094D01*
X115327695Y-57310094D02*
X115375314Y-57357713D01*
X115708648Y-57595808D02*
X115946743Y-58262475D01*
X116184838Y-57595808D02*
X115946743Y-58262475D01*
X115946743Y-58262475D02*
X115851505Y-58500570D01*
X115851505Y-58500570D02*
X115803886Y-58548189D01*
X115803886Y-58548189D02*
X115708648Y-58595808D01*
X116994362Y-58262475D02*
X116994362Y-57738665D01*
X116994362Y-57738665D02*
X116946743Y-57643427D01*
X116946743Y-57643427D02*
X116851505Y-57595808D01*
X116851505Y-57595808D02*
X116661029Y-57595808D01*
X116661029Y-57595808D02*
X116565791Y-57643427D01*
X116994362Y-58214856D02*
X116899124Y-58262475D01*
X116899124Y-58262475D02*
X116661029Y-58262475D01*
X116661029Y-58262475D02*
X116565791Y-58214856D01*
X116565791Y-58214856D02*
X116518172Y-58119617D01*
X116518172Y-58119617D02*
X116518172Y-58024379D01*
X116518172Y-58024379D02*
X116565791Y-57929141D01*
X116565791Y-57929141D02*
X116661029Y-57881522D01*
X116661029Y-57881522D02*
X116899124Y-57881522D01*
X116899124Y-57881522D02*
X116994362Y-57833903D01*
X117470553Y-57595808D02*
X117470553Y-58262475D01*
X117470553Y-57691046D02*
X117518172Y-57643427D01*
X117518172Y-57643427D02*
X117613410Y-57595808D01*
X117613410Y-57595808D02*
X117756267Y-57595808D01*
X117756267Y-57595808D02*
X117851505Y-57643427D01*
X117851505Y-57643427D02*
X117899124Y-57738665D01*
X117899124Y-57738665D02*
X117899124Y-58262475D01*
X118708648Y-57738665D02*
X118851505Y-57786284D01*
X118851505Y-57786284D02*
X118899124Y-57833903D01*
X118899124Y-57833903D02*
X118946743Y-57929141D01*
X118946743Y-57929141D02*
X118946743Y-58071998D01*
X118946743Y-58071998D02*
X118899124Y-58167236D01*
X118899124Y-58167236D02*
X118851505Y-58214856D01*
X118851505Y-58214856D02*
X118756267Y-58262475D01*
X118756267Y-58262475D02*
X118375315Y-58262475D01*
X118375315Y-58262475D02*
X118375315Y-57262475D01*
X118375315Y-57262475D02*
X118708648Y-57262475D01*
X118708648Y-57262475D02*
X118803886Y-57310094D01*
X118803886Y-57310094D02*
X118851505Y-57357713D01*
X118851505Y-57357713D02*
X118899124Y-57452951D01*
X118899124Y-57452951D02*
X118899124Y-57548189D01*
X118899124Y-57548189D02*
X118851505Y-57643427D01*
X118851505Y-57643427D02*
X118803886Y-57691046D01*
X118803886Y-57691046D02*
X118708648Y-57738665D01*
X118708648Y-57738665D02*
X118375315Y-57738665D01*
X119518172Y-58262475D02*
X119422934Y-58214856D01*
X119422934Y-58214856D02*
X119375315Y-58119617D01*
X119375315Y-58119617D02*
X119375315Y-57262475D01*
X120041982Y-58262475D02*
X119946744Y-58214856D01*
X119946744Y-58214856D02*
X119899125Y-58167236D01*
X119899125Y-58167236D02*
X119851506Y-58071998D01*
X119851506Y-58071998D02*
X119851506Y-57786284D01*
X119851506Y-57786284D02*
X119899125Y-57691046D01*
X119899125Y-57691046D02*
X119946744Y-57643427D01*
X119946744Y-57643427D02*
X120041982Y-57595808D01*
X120041982Y-57595808D02*
X120184839Y-57595808D01*
X120184839Y-57595808D02*
X120280077Y-57643427D01*
X120280077Y-57643427D02*
X120327696Y-57691046D01*
X120327696Y-57691046D02*
X120375315Y-57786284D01*
X120375315Y-57786284D02*
X120375315Y-58071998D01*
X120375315Y-58071998D02*
X120327696Y-58167236D01*
X120327696Y-58167236D02*
X120280077Y-58214856D01*
X120280077Y-58214856D02*
X120184839Y-58262475D01*
X120184839Y-58262475D02*
X120041982Y-58262475D01*
X120803887Y-58262475D02*
X120803887Y-57262475D01*
X120803887Y-57643427D02*
X120899125Y-57595808D01*
X120899125Y-57595808D02*
X121089601Y-57595808D01*
X121089601Y-57595808D02*
X121184839Y-57643427D01*
X121184839Y-57643427D02*
X121232458Y-57691046D01*
X121232458Y-57691046D02*
X121280077Y-57786284D01*
X121280077Y-57786284D02*
X121280077Y-58071998D01*
X121280077Y-58071998D02*
X121232458Y-58167236D01*
X121232458Y-58167236D02*
X121184839Y-58214856D01*
X121184839Y-58214856D02*
X121089601Y-58262475D01*
X121089601Y-58262475D02*
X120899125Y-58262475D01*
X120899125Y-58262475D02*
X120803887Y-58214856D01*
X121613411Y-58643427D02*
X121661030Y-58595808D01*
X121661030Y-58595808D02*
X121756268Y-58452951D01*
X121756268Y-58452951D02*
X121803887Y-58357713D01*
X121803887Y-58357713D02*
X121851506Y-58214856D01*
X121851506Y-58214856D02*
X121899125Y-57976760D01*
X121899125Y-57976760D02*
X121899125Y-57786284D01*
X121899125Y-57786284D02*
X121851506Y-57548189D01*
X121851506Y-57548189D02*
X121803887Y-57405332D01*
X121803887Y-57405332D02*
X121756268Y-57310094D01*
X121756268Y-57310094D02*
X121661030Y-57167236D01*
X121661030Y-57167236D02*
X121613411Y-57119617D01*
X102327693Y-59872419D02*
X101756265Y-59872419D01*
X102041979Y-59872419D02*
X102041979Y-58872419D01*
X102041979Y-58872419D02*
X101946741Y-59015276D01*
X101946741Y-59015276D02*
X101851503Y-59110514D01*
X101851503Y-59110514D02*
X101756265Y-59158133D01*
X102946741Y-58872419D02*
X103041979Y-58872419D01*
X103041979Y-58872419D02*
X103137217Y-58920038D01*
X103137217Y-58920038D02*
X103184836Y-58967657D01*
X103184836Y-58967657D02*
X103232455Y-59062895D01*
X103232455Y-59062895D02*
X103280074Y-59253371D01*
X103280074Y-59253371D02*
X103280074Y-59491466D01*
X103280074Y-59491466D02*
X103232455Y-59681942D01*
X103232455Y-59681942D02*
X103184836Y-59777180D01*
X103184836Y-59777180D02*
X103137217Y-59824800D01*
X103137217Y-59824800D02*
X103041979Y-59872419D01*
X103041979Y-59872419D02*
X102946741Y-59872419D01*
X102946741Y-59872419D02*
X102851503Y-59824800D01*
X102851503Y-59824800D02*
X102803884Y-59777180D01*
X102803884Y-59777180D02*
X102756265Y-59681942D01*
X102756265Y-59681942D02*
X102708646Y-59491466D01*
X102708646Y-59491466D02*
X102708646Y-59253371D01*
X102708646Y-59253371D02*
X102756265Y-59062895D01*
X102756265Y-59062895D02*
X102803884Y-58967657D01*
X102803884Y-58967657D02*
X102851503Y-58920038D01*
X102851503Y-58920038D02*
X102946741Y-58872419D01*
X104422931Y-58824800D02*
X103565789Y-60110514D01*
X105280074Y-59872419D02*
X104708646Y-59872419D01*
X104994360Y-59872419D02*
X104994360Y-58872419D01*
X104994360Y-58872419D02*
X104899122Y-59015276D01*
X104899122Y-59015276D02*
X104803884Y-59110514D01*
X104803884Y-59110514D02*
X104708646Y-59158133D01*
X105613408Y-58872419D02*
X106280074Y-58872419D01*
X106280074Y-58872419D02*
X105851503Y-59872419D01*
X107375312Y-58824800D02*
X106518170Y-60110514D01*
X107661027Y-58967657D02*
X107708646Y-58920038D01*
X107708646Y-58920038D02*
X107803884Y-58872419D01*
X107803884Y-58872419D02*
X108041979Y-58872419D01*
X108041979Y-58872419D02*
X108137217Y-58920038D01*
X108137217Y-58920038D02*
X108184836Y-58967657D01*
X108184836Y-58967657D02*
X108232455Y-59062895D01*
X108232455Y-59062895D02*
X108232455Y-59158133D01*
X108232455Y-59158133D02*
X108184836Y-59300990D01*
X108184836Y-59300990D02*
X107613408Y-59872419D01*
X107613408Y-59872419D02*
X108232455Y-59872419D01*
X109089598Y-59205752D02*
X109089598Y-59872419D01*
X108851503Y-58824800D02*
X108613408Y-59539085D01*
X108613408Y-59539085D02*
X109232455Y-59539085D01*
D11*
X112761904Y-89645180D02*
X112761904Y-88835657D01*
X112761904Y-88835657D02*
X112714285Y-88740419D01*
X112714285Y-88740419D02*
X112666666Y-88692800D01*
X112666666Y-88692800D02*
X112571428Y-88645180D01*
X112571428Y-88645180D02*
X112380952Y-88645180D01*
X112380952Y-88645180D02*
X112285714Y-88692800D01*
X112285714Y-88692800D02*
X112238095Y-88740419D01*
X112238095Y-88740419D02*
X112190476Y-88835657D01*
X112190476Y-88835657D02*
X112190476Y-89645180D01*
X111285714Y-89311847D02*
X111285714Y-88645180D01*
X111523809Y-89692800D02*
X111761904Y-88978514D01*
X111761904Y-88978514D02*
X111142857Y-88978514D01*
D12*
X155242856Y-114189882D02*
X155157142Y-114189882D01*
X155157142Y-114189882D02*
X155071428Y-114147025D01*
X155071428Y-114147025D02*
X155028571Y-114104168D01*
X155028571Y-114104168D02*
X154985713Y-114018454D01*
X154985713Y-114018454D02*
X154942856Y-113847025D01*
X154942856Y-113847025D02*
X154942856Y-113632740D01*
X154942856Y-113632740D02*
X154985713Y-113461311D01*
X154985713Y-113461311D02*
X155028571Y-113375597D01*
X155028571Y-113375597D02*
X155071428Y-113332740D01*
X155071428Y-113332740D02*
X155157142Y-113289882D01*
X155157142Y-113289882D02*
X155242856Y-113289882D01*
X155242856Y-113289882D02*
X155328571Y-113332740D01*
X155328571Y-113332740D02*
X155371428Y-113375597D01*
X155371428Y-113375597D02*
X155414285Y-113461311D01*
X155414285Y-113461311D02*
X155457142Y-113632740D01*
X155457142Y-113632740D02*
X155457142Y-113847025D01*
X155457142Y-113847025D02*
X155414285Y-114018454D01*
X155414285Y-114018454D02*
X155371428Y-114104168D01*
X155371428Y-114104168D02*
X155328571Y-114147025D01*
X155328571Y-114147025D02*
X155242856Y-114189882D01*
X155571428Y-90889882D02*
X156085714Y-90889882D01*
X155828571Y-90889882D02*
X155828571Y-91789882D01*
X155828571Y-91789882D02*
X155914285Y-91661311D01*
X155914285Y-91661311D02*
X156000000Y-91575597D01*
X156000000Y-91575597D02*
X156085714Y-91532740D01*
X155014285Y-91789882D02*
X154928571Y-91789882D01*
X154928571Y-91789882D02*
X154842857Y-91747025D01*
X154842857Y-91747025D02*
X154800000Y-91704168D01*
X154800000Y-91704168D02*
X154757142Y-91618454D01*
X154757142Y-91618454D02*
X154714285Y-91447025D01*
X154714285Y-91447025D02*
X154714285Y-91232740D01*
X154714285Y-91232740D02*
X154757142Y-91061311D01*
X154757142Y-91061311D02*
X154800000Y-90975597D01*
X154800000Y-90975597D02*
X154842857Y-90932740D01*
X154842857Y-90932740D02*
X154928571Y-90889882D01*
X154928571Y-90889882D02*
X155014285Y-90889882D01*
X155014285Y-90889882D02*
X155100000Y-90932740D01*
X155100000Y-90932740D02*
X155142857Y-90975597D01*
X155142857Y-90975597D02*
X155185714Y-91061311D01*
X155185714Y-91061311D02*
X155228571Y-91232740D01*
X155228571Y-91232740D02*
X155228571Y-91447025D01*
X155228571Y-91447025D02*
X155185714Y-91618454D01*
X155185714Y-91618454D02*
X155142857Y-91704168D01*
X155142857Y-91704168D02*
X155100000Y-91747025D01*
X155100000Y-91747025D02*
X155014285Y-91789882D01*
X112857143Y-113889882D02*
X112857143Y-113289882D01*
X113071428Y-114232740D02*
X113285714Y-113589882D01*
X113285714Y-113589882D02*
X112728571Y-113589882D01*
X112214285Y-114189882D02*
X112128571Y-114189882D01*
X112128571Y-114189882D02*
X112042857Y-114147025D01*
X112042857Y-114147025D02*
X112000000Y-114104168D01*
X112000000Y-114104168D02*
X111957142Y-114018454D01*
X111957142Y-114018454D02*
X111914285Y-113847025D01*
X111914285Y-113847025D02*
X111914285Y-113632740D01*
X111914285Y-113632740D02*
X111957142Y-113461311D01*
X111957142Y-113461311D02*
X112000000Y-113375597D01*
X112000000Y-113375597D02*
X112042857Y-113332740D01*
X112042857Y-113332740D02*
X112128571Y-113289882D01*
X112128571Y-113289882D02*
X112214285Y-113289882D01*
X112214285Y-113289882D02*
X112300000Y-113332740D01*
X112300000Y-113332740D02*
X112342857Y-113375597D01*
X112342857Y-113375597D02*
X112385714Y-113461311D01*
X112385714Y-113461311D02*
X112428571Y-113632740D01*
X112428571Y-113632740D02*
X112428571Y-113847025D01*
X112428571Y-113847025D02*
X112385714Y-114018454D01*
X112385714Y-114018454D02*
X112342857Y-114104168D01*
X112342857Y-114104168D02*
X112300000Y-114147025D01*
X112300000Y-114147025D02*
X112214285Y-114189882D01*
X113528571Y-91589882D02*
X112971428Y-91589882D01*
X112971428Y-91589882D02*
X113271428Y-91247025D01*
X113271428Y-91247025D02*
X113142857Y-91247025D01*
X113142857Y-91247025D02*
X113057143Y-91204168D01*
X113057143Y-91204168D02*
X113014285Y-91161311D01*
X113014285Y-91161311D02*
X112971428Y-91075597D01*
X112971428Y-91075597D02*
X112971428Y-90861311D01*
X112971428Y-90861311D02*
X113014285Y-90775597D01*
X113014285Y-90775597D02*
X113057143Y-90732740D01*
X113057143Y-90732740D02*
X113142857Y-90689882D01*
X113142857Y-90689882D02*
X113400000Y-90689882D01*
X113400000Y-90689882D02*
X113485714Y-90732740D01*
X113485714Y-90732740D02*
X113528571Y-90775597D01*
X112414285Y-91589882D02*
X112328571Y-91589882D01*
X112328571Y-91589882D02*
X112242857Y-91547025D01*
X112242857Y-91547025D02*
X112200000Y-91504168D01*
X112200000Y-91504168D02*
X112157142Y-91418454D01*
X112157142Y-91418454D02*
X112114285Y-91247025D01*
X112114285Y-91247025D02*
X112114285Y-91032740D01*
X112114285Y-91032740D02*
X112157142Y-90861311D01*
X112157142Y-90861311D02*
X112200000Y-90775597D01*
X112200000Y-90775597D02*
X112242857Y-90732740D01*
X112242857Y-90732740D02*
X112328571Y-90689882D01*
X112328571Y-90689882D02*
X112414285Y-90689882D01*
X112414285Y-90689882D02*
X112500000Y-90732740D01*
X112500000Y-90732740D02*
X112542857Y-90775597D01*
X112542857Y-90775597D02*
X112585714Y-90861311D01*
X112585714Y-90861311D02*
X112628571Y-91032740D01*
X112628571Y-91032740D02*
X112628571Y-91247025D01*
X112628571Y-91247025D02*
X112585714Y-91418454D01*
X112585714Y-91418454D02*
X112542857Y-91504168D01*
X112542857Y-91504168D02*
X112500000Y-91547025D01*
X112500000Y-91547025D02*
X112414285Y-91589882D01*
D11*
X140738095Y-129954819D02*
X140738095Y-130764342D01*
X140738095Y-130764342D02*
X140785714Y-130859580D01*
X140785714Y-130859580D02*
X140833333Y-130907200D01*
X140833333Y-130907200D02*
X140928571Y-130954819D01*
X140928571Y-130954819D02*
X141119047Y-130954819D01*
X141119047Y-130954819D02*
X141214285Y-130907200D01*
X141214285Y-130907200D02*
X141261904Y-130859580D01*
X141261904Y-130859580D02*
X141309523Y-130764342D01*
X141309523Y-130764342D02*
X141309523Y-129954819D01*
X141690476Y-129954819D02*
X142309523Y-129954819D01*
X142309523Y-129954819D02*
X141976190Y-130335771D01*
X141976190Y-130335771D02*
X142119047Y-130335771D01*
X142119047Y-130335771D02*
X142214285Y-130383390D01*
X142214285Y-130383390D02*
X142261904Y-130431009D01*
X142261904Y-130431009D02*
X142309523Y-130526247D01*
X142309523Y-130526247D02*
X142309523Y-130764342D01*
X142309523Y-130764342D02*
X142261904Y-130859580D01*
X142261904Y-130859580D02*
X142214285Y-130907200D01*
X142214285Y-130907200D02*
X142119047Y-130954819D01*
X142119047Y-130954819D02*
X141833333Y-130954819D01*
X141833333Y-130954819D02*
X141738095Y-130907200D01*
X141738095Y-130907200D02*
X141690476Y-130859580D01*
X150738095Y-75954819D02*
X150738095Y-76764342D01*
X150738095Y-76764342D02*
X150785714Y-76859580D01*
X150785714Y-76859580D02*
X150833333Y-76907200D01*
X150833333Y-76907200D02*
X150928571Y-76954819D01*
X150928571Y-76954819D02*
X151119047Y-76954819D01*
X151119047Y-76954819D02*
X151214285Y-76907200D01*
X151214285Y-76907200D02*
X151261904Y-76859580D01*
X151261904Y-76859580D02*
X151309523Y-76764342D01*
X151309523Y-76764342D02*
X151309523Y-75954819D01*
X151738095Y-76050057D02*
X151785714Y-76002438D01*
X151785714Y-76002438D02*
X151880952Y-75954819D01*
X151880952Y-75954819D02*
X152119047Y-75954819D01*
X152119047Y-75954819D02*
X152214285Y-76002438D01*
X152214285Y-76002438D02*
X152261904Y-76050057D01*
X152261904Y-76050057D02*
X152309523Y-76145295D01*
X152309523Y-76145295D02*
X152309523Y-76240533D01*
X152309523Y-76240533D02*
X152261904Y-76383390D01*
X152261904Y-76383390D02*
X151690476Y-76954819D01*
X151690476Y-76954819D02*
X152309523Y-76954819D01*
%TO.C,U4*%
X156600000Y-112500000D02*
X157300000Y-112500000D01*
X156600000Y-112500000D02*
X156600000Y-113600000D01*
X156600000Y-89900000D02*
X156600000Y-92500000D01*
D12*
X155500000Y-112900000D02*
X155200000Y-112600000D01*
X155200000Y-112600000D02*
X154900000Y-112900000D01*
D11*
X155100000Y-115100000D02*
X154000000Y-115100000D01*
D12*
X154300000Y-91000000D02*
X154000000Y-91300000D01*
X154000000Y-91300000D02*
X154300000Y-91600000D01*
D11*
X154000000Y-89900000D02*
X156600000Y-89900000D01*
X114000000Y-115100000D02*
X111400000Y-115100000D01*
D12*
X113950000Y-113700000D02*
X113650000Y-113400000D01*
X113650000Y-114000000D02*
X113950000Y-113700000D01*
X112800000Y-92300000D02*
X113100000Y-92000000D01*
X112500000Y-92000000D02*
X112800000Y-92300000D01*
D11*
X111400000Y-115100000D02*
X111400000Y-112500000D01*
X111400000Y-92500000D02*
X111400000Y-89900000D01*
X111400000Y-89900000D02*
X114000000Y-89900000D01*
X156600000Y-113600000D02*
G75*
G02*
X155100000Y-115100000I-1616790J116790D01*
G01*
D12*
%TO.C,U3*%
X101500000Y-130500000D02*
X101500000Y-155500000D01*
X101500000Y-155500000D02*
X166500000Y-155500000D01*
X166500000Y-130500000D02*
X101500000Y-130500000D01*
X166500000Y-155500000D02*
X166500000Y-130500000D01*
%TO.C,U2*%
X101500000Y-64000000D02*
X101500000Y-74000000D01*
X101500000Y-64000000D02*
X104000000Y-64000000D01*
X101500000Y-74000000D02*
X104000000Y-74000000D01*
X104000000Y-74000000D02*
X166500000Y-74000000D01*
X106500000Y-64000000D02*
X104000000Y-64000000D01*
X166500000Y-64000000D02*
X106500000Y-64000000D01*
X166500000Y-74000000D02*
X166500000Y-64000000D01*
%TD*%
M02*
